{
	"name": "swade",
	"title": "Savage Worlds Adventure Edition",
	"description": "A comprehensive gamesystem for running Savage Worlds Adventure Edition games",
	"version": "0.8.7",
	"minimumCoreVersion": "0.6.0",
	"compatibleCoreVersion": "0.6.0",
	"author": "FloRad and fgerling",
	"templateVersion": 2,
	"esmodules": ["swade.js"],
	"styles": ["swade.css"],
	"packs": [
		{
			"name": "skills",
			"label": "Skills",
			"system": "swade",
			"path": "./packs/skills.db",
			"entity": "Item"
		},
		{
			"name": "edges",
			"label": "Edges",
			"system": "swade",
			"path": "./packs/edges.db",
			"entity": "Item"
		},
		{
			"name": "hindrances",
			"label": "Hindrances",
			"system": "swade",
			"path": "./packs/hindrances.db",
			"entity": "Item"
		},
		{
			"name": "powers",
			"label": "Powers",
			"system": "swade",
			"path": "./packs/powers.db",
			"entity": "Item"
		},
		{
			"name": "armor",
			"label": "Armor",
			"system": "swade",
			"path": "./packs/armor.db",
			"entity": "Item"
		},
		{
			"name": "weapons",
			"label": "Weapons",
			"system": "swade",
			"path": "./packs/weapons.db",
			"entity": "Item"
		},
		{
			"name": "shields",
			"label": "Shields",
			"system": "swade",
			"path": "./packs/shields.db",
			"entity": "Item"
		},
		{
			"name": "gear",
			"label": "Gear",
			"system": "swade",
			"path": "./packs/gear.db",
			"entity": "Item"
		},
		{
			"name": "action-cards",
			"label": "Action Cards",
			"system": "swade",
			"path": "./packs/action-cards.db",
			"entity": "JournalEntry"
		}
	],
	"languages": [
		{
			"lang": "en",
			"name": "English",
			"path": "lang/en.json"
		},
		{
			"lang": "es",
			"name": "Spanish",
			"path": "lang/es.json"
		},
		{
			"lang": "de",
			"name": "Deutsch",
			"path": "lang/de.json"
		},
		{
			"lang": "pl",
			"name": "Polski",
			"path": "lang/pl.json"
		}
	],
	"socket": false,
	"gridDistance": 1,
	"gridUnits": "in",
	"url": "https://gitlab.com/fgerling/swade",
	"manifest": "https://gitlab.com/fgerling/swade/-/raw/master/src/system.json",
	"download": "https://gitlab.com/fgerling/swade/-/raw/master/package/swade-v0.8.7.zip"
}
